pageObjectModel\GoogleSearchPage.class
test\DesiredCapabilityDemo.class
test\GoogleSearchPageTest.class
pageObjectModel\GoogleSearchObjectPage.class
test\GoogleSearchObjectPageTest.class
test\GoogleSearchObjectPageTestNG.class
test\ExtendReportBasicDemo.class
test\ExtentReportDemoTestNG.class
test\TestNGdemo.class
