C:\Users\sanjib\workspace\Test\src\test\java\test\GoogleSearchPageTest.java
C:\Users\sanjib\workspace\Test\src\test\java\test\TestNGdemo.java
C:\Users\sanjib\workspace\Test\src\test\java\test\DesiredCapabilityDemo.java
C:\Users\sanjib\workspace\Test\src\test\java\test\GoogleSearchObjectPageTest.java
C:\Users\sanjib\workspace\Test\src\test\java\pageObjectModel\GoogleSearchObjectPage.java
C:\Users\sanjib\workspace\Test\src\test\java\pageObjectModel\GoogleSearchPage.java
C:\Users\sanjib\workspace\Test\src\test\java\test\ExtentReportDemoTestNG.java
C:\Users\sanjib\workspace\Test\src\test\java\test\ExtendReportBasicDemo.java
C:\Users\sanjib\workspace\Test\src\test\java\test\GoogleSearchObjectPageTestNG.java
